[2,"\n"]
[1,"\u001B[1m\u001B[34mPreparing to preview\u001B[39m\u001B[22m\n"]
[1,"\n\u001B[32mWatching files for changes\u001B[39m\n\u001B[32mBrowse at \u001B[39m\u001B[4m\u001B[32mhttp://localhost:4003/\u001B[39m\u001B[24m\n"]
[1,"\u001B[32mGET: /courses.html\u001B[39m\n"]
[1,"\u001B[1mpandoc \u001B[22m\n  to: html\n  output-file: courses.html\n  standalone: true\n  title-prefix: inqs909\n  section-divs: true\n  html-math-method: mathjax\n  wrap: none\n  default-image-extension: png\n  css:\n    - styles.css\n  \n\u001B[1mmetadata\u001B[22m\n  document-css: false\n  link-citations: true\n  date-format: long\n  lang: en\n  editor: visual\n  theme: cosmo\n  title: Courses\n  \n"]
[1,"Output created: _site/courses.html\n\n"]
[1,"\u001B[32mGET: /courses.html\u001B[39m\n"]
[1,"\u001B[1mpandoc \u001B[22m\n  to: html\n  output-file: courses.html\n  standalone: true\n  title-prefix: inqs909\n  section-divs: true\n  html-math-method: mathjax\n  wrap: none\n  default-image-extension: png\n  css:\n    - styles.css\n  \n\u001B[1mmetadata\u001B[22m\n  document-css: false\n  link-citations: true\n  date-format: long\n  lang: en\n  editor: visual\n  theme: cosmo\n  title: Courses\n  \n"]
[1,"Output created: _site/courses.html\n\n"]
[1,"\u001B[32mGET: /courses.html\u001B[39m\n"]
[1,"\u001B[1mpandoc \u001B[22m\n  to: html\n  output-file: courses.html\n  standalone: true\n  title-prefix: inqs909\n  section-divs: true\n  html-math-method: mathjax\n  wrap: none\n  default-image-extension: png\n  css:\n    - styles.css\n  \n\u001B[1mmetadata\u001B[22m\n  document-css: false\n  link-citations: true\n  date-format: long\n  lang: en\n  editor: visual\n  theme: cosmo\n  title: Courses\n  \n"]
[1,"Output created: _site/courses.html\n\n"]
[1,"\u001B[32mGET: /courses.html\u001B[39m\n"]
[1,"\u001B[1mpandoc \u001B[22m\n  to: html\n  output-file: courses.html\n  standalone: true\n  title-prefix: inqs909\n  section-divs: true\n  html-math-method: mathjax\n  wrap: none\n  default-image-extension: png\n  css:\n    - styles.css\n  \n\u001B[1mmetadata\u001B[22m\n  document-css: false\n  link-citations: true\n  date-format: long\n  lang: en\n  editor: visual\n  theme: cosmo\n  title: Courses\n  \n"]
[1,"Output created: _site/courses.html\n\n"]
[1,"\u001B[32mGET: /courses.html\u001B[39m\n"]
[1,"\u001B[1mpandoc \u001B[22m\n  to: html\n  output-file: courses.html\n  standalone: true\n  title-prefix: inqs909\n  section-divs: true\n  html-math-method: mathjax\n  wrap: none\n  default-image-extension: png\n  css:\n    - styles.css\n  \n\u001B[1mmetadata\u001B[22m\n  document-css: false\n  link-citations: true\n  date-format: long\n  lang: en\n  editor: visual\n  theme: cosmo\n  title: Courses\n  \n"]
[1,"Output created: _site/courses.html\n\n"]
[1,"\u001B[32mGET: /courses.html\u001B[39m\n"]
[1,"\u001B[1mpandoc \u001B[22m\n  to: html\n  output-file: courses.html\n  standalone: true\n  title-prefix: inqs909\n  section-divs: true\n  html-math-method: mathjax\n  wrap: none\n  default-image-extension: png\n  css:\n    - styles.css\n  \n\u001B[1mmetadata\u001B[22m\n  document-css: false\n  link-citations: true\n  date-format: long\n  lang: en\n  editor: visual\n  theme: cosmo\n  title: Courses\n  \n"]
[1,"Output created: _site/courses.html\n\n"]
[1,"\u001B[32mGET: /courses.html\u001B[39m\n"]
[1,"\u001B[32mGET: /courses.html\u001B[39m\n"]
[1,"\u001B[1mpandoc \u001B[22m\n  to: html\n  output-file: index.html\n  standalone: true\n  title-prefix: INQS\n  section-divs: true\n  html-math-method: mathjax\n  wrap: none\n  default-image-extension: png\n  css:\n    - styles.css\n  \n\u001B[1mmetadata\u001B[22m\n  pagetitle: INQS\n  document-css: false\n  link-citations: true\n  date-format: long\n  lang: en\n  editor: visual\n  theme: cosmo\n  editor_options:\n    chunk_output_type: console\n  \n"]
[1,"Output created: _site/index.html\n\n"]
[1,"\u001B[32mGET: /\u001B[39m\n"]
[1,"\u001B[32mGET: /\u001B[39m\n"]
[1,"\u001B[32mGET: /courses.html\u001B[39m\n"]
[1,"\u001B[1mpandoc \u001B[22m\n  to: html\n  output-file: courses.html\n  standalone: true\n  title-prefix: INQS\n  section-divs: true\n  html-math-method: mathjax\n  wrap: none\n  default-image-extension: png\n  css:\n    - styles.css\n  \n\u001B[1mmetadata\u001B[22m\n  document-css: false\n  link-citations: true\n  date-format: long\n  lang: en\n  editor: visual\n  theme: cosmo\n  title: Courses\n  \n"]
[1,"Output created: _site/courses.html\n\n"]
[1,"\u001B[32mGET: /courses.html\u001B[39m\n\u001B[32mGET: /courses.html\u001B[39m\n"]
[1,"\u001B[1mpandoc \u001B[22m\n  to: html\n  output-file: courses.html\n  standalone: true\n  title-prefix: INQS\n  section-divs: true\n  html-math-method: mathjax\n  wrap: none\n  default-image-extension: png\n  css:\n    - styles.css\n  \n\u001B[1mmetadata\u001B[22m\n  document-css: false\n  link-citations: true\n  date-format: long\n  lang: en\n  editor: visual\n  theme: cosmo\n  title: Courses\n  \n"]
[1,"Output created: _site/courses.html\n\n"]
[1,"\u001B[32mGET: /courses.html\u001B[39m\n\u001B[32mGET: /courses.html\u001B[39m\n"]
[1,"\u001B[1mpandoc \u001B[22m\n"]
[1,"  to: html\n  output-file: courses.html\n  standalone: true\n  title-prefix: INQS\n  section-divs: true\n  html-math-method: mathjax\n  wrap: none\n  default-image-extension: png\n  css:\n    - styles.css\n  \n\u001B[1mmetadata\u001B[22m\n  document-css: false\n  link-citations: true\n  date-format: long\n  lang: en\n  editor: visual\n  theme: cosmo\n  title: Courses\n  \n"]
[1,"Output created: _site/courses.html\n\n"]
[1,"\u001B[32mGET: /courses.html\u001B[39m\n\u001B[32mGET: /courses.html\u001B[39m\n"]
[1,"\u001B[1mpandoc \u001B[22m\n  to: html\n  output-file: courses.html\n  standalone: true\n  title-prefix: INQS\n  section-divs: true\n  html-math-method: mathjax\n  wrap: none\n  default-image-extension: png\n  css:\n    - styles.css\n  \n\u001B[1mmetadata\u001B[22m\n  document-css: false\n  link-citations: true\n  date-format: long\n  lang: en\n  editor: visual\n  theme: cosmo\n  title: Courses\n  \n"]
[1,"Output created: _site/courses.html\n\n"]
[1,"\u001B[32mGET: /courses.html\u001B[39m\n\u001B[32mGET: /courses.html\u001B[39m\n"]
[1,"\u001B[1mpandoc \u001B[22m\n  to: html\n  output-file: courses.html\n  standalone: true\n  title-prefix: INQS\n  section-divs: true\n  html-math-method: mathjax\n  wrap: none\n  default-image-extension: png\n  css:\n    - styles.css\n  \n\u001B[1mmetadata\u001B[22m\n  document-css: false\n  link-citations: true\n  date-format: long\n  lang: en\n  editor: visual\n  theme: cosmo\n  title: Courses\n  \n"]
[1,"Output created: _site/courses.html\n\n"]
[1,"\u001B[32mGET: /courses.html\u001B[39m\n\u001B[32mGET: /courses.html\u001B[39m\n"]
[1,"\u001B[32mGET: /courses.html\u001B[39m\n"]
[1,"\u001B[32mGET: /courses.html\u001B[39m\n"]
[1,"\u001B[32mGET: /courses.html\u001B[39m\n"]
[1,"\u001B[32mGET: /\u001B[39m\n"]
[1,"\u001B[32mGET: /courses.html\u001B[39m\n"]
[1,"\u001B[32mGET: /\u001B[39m\n"]
